<?xml version="1.0" encoding="UTF-8" standalone="no"?>
<svg
   xmlns:dc="http://purl.org/dc/elements/1.1/"
   xmlns:cc="http://creativecommons.org/ns#"
   xmlns:rdf="http://www.w3.org/1999/02/22-rdf-syntax-ns#"
   xmlns:svg="http://www.w3.org/2000/svg"
   xmlns="http://www.w3.org/2000/svg"
   width="23.128059mm"
   height="25.332254mm"
   viewBox="0 0 23.128059 25.332254"
   version="1.1"
   id="svg2143">
  <title
     id="title2759">Peace dove</title>
  <defs
     id="defs2137" />
  <metadata
     id="metadata2140">
    <rdf:RDF>
      <cc:Work
         rdf:about="">
        <dc:format>image/svg+xml</dc:format>
        <dc:type
           rdf:resource="http://purl.org/dc/dcmitype/StillImage" />
        <dc:title>Peace dove</dc:title>
        <cc:license
           rdf:resource="http://creativecommons.org/licenses/by-sa/3.0/" />
        <dc:date>22.02.2022</dc:date>
        <dc:source>https://commons.wikimedia.org/wiki/File:14_Irene_symbol_(elaborate).svg</dc:source>
        <dc:creator>
          <cc:Agent>
            <dc:title>Kwamikagami</dc:title>
          </cc:Agent>
        </dc:creator>
        <dc:contributor>
          <cc:Agent>
            <dc:title>Carnby</dc:title>
          </cc:Agent>
        </dc:contributor>
      </cc:Work>
    </rdf:RDF>
  </metadata>
  <g
     id="layer1"
     transform="translate(-144.91811,-164.22674)">
    <path
       d="m 165.81115,182.73099 c -0.10103,-0.52849 -0.0765,-0.54249 0.72149,-0.41158 l 0.82607,0.13553 -0.59738,-0.54652 c -0.53419,-0.48871 -0.55241,-0.54651 -0.17225,-0.54651 0.79137,0 0.66092,-0.37177 -0.17748,-0.50584 -0.45812,-0.0732 -2.05958,-0.58686 -3.55876,-1.14138 -2.60886,-0.96491 -2.69166,-1.01369 -1.92867,-1.13779 1.01679,-0.16528 1.19808,-0.35117 0.56931,-0.58377 -0.46236,-0.17105 -0.42683,-0.2113 0.49836,-0.56463 1.21908,-0.46559 1.72727,-0.96365 0.98312,-0.96365 -0.46569,0 -0.45052,-0.039 0.24007,-0.61796 0.84182,-0.70571 0.74444,-1.02799 -0.21008,-0.69519 -0.88713,0.30924 -0.81707,0.17136 0.3053,-0.60085 0.5252,-0.36135 1.06248,-0.85798 1.19398,-1.10359 0.22302,-0.4167 0.19828,-0.43642 -0.3694,-0.29428 -0.58296,0.14597 -0.57055,0.11737 0.29644,-0.68365 1.17499,-1.08558 1.18139,-1.42038 0.0241,-1.26518 l -0.88076,0.11813 0.9626,-0.99497 c 0.52945,-0.54724 1.07289,-1.21058 1.20759,-1.47398 0.22899,-0.44773 0.20074,-0.47905 -0.4321,-0.47905 h -0.67711 l 1.06249,-1.12339 c 1.02728,-1.08618 1.67338,-2.02207 1.50918,-2.18627 -0.0437,-0.0437 -1.14519,0.43446 -2.44777,1.06269 -4.04425,1.95047 -5.94382,3.49075 -6.86041,5.56302 -0.89715,2.02818 -3.07156,3.99815 -4.99993,4.52974 -0.74546,0.20554 -0.99162,0.16021 -2.33767,-0.43057 0,0 -1.01189,-0.77329 -1.50448,-0.75636 -0.37887,0.013 -0.78843,0.48823 -1.11949,0.68215 -0.3271,0.19162 -1.11949,0.58612 -1.11949,0.58612 l 0.52255,0.41103 c 0.28737,0.22606 0.9329,0.48008 1.43448,0.5645 0.84701,0.14254 0.96006,0.24416 1.58778,1.42728 1.77438,3.34446 4.46094,4.03545 8.26649,2.12607 0.8197,-0.41126 1.63408,-0.74718 1.80978,-0.74646 0.17565,7.1e-4 1.46908,0.71873 2.87436,1.59558 1.40518,0.87686 2.56556,1.59528 2.57866,1.59648 0.013,8.1e-4 -0.0233,-0.24401 -0.0809,-0.54492 z"
       fill="#b3b3b3"
       id="path1501"
       style="stroke-width:0.999987" />
    <path
       d="m 148.35537,175.98608 c 0.13413,-0.40288 0.79851,-0.46016 0.79851,-0.0689 0,0.1975 -0.18203,0.33498 -0.44356,0.33498 -0.26017,0 -0.40692,-0.11004 -0.35495,-0.26613 z"
       fill="#4d4d4d"
       id="path1503"
       style="stroke-width:0.999987" />
    <path
       d="m 159.98822,175.85008 c 1.20069,-1.15679 1.69528,-2.15247 1.06929,-2.15247 -0.12784,0 0.2075,-0.42758 0.74519,-0.95017 1.11168,-1.08039 1.30438,-1.97468 0.53552,-2.48517 -0.42898,-0.28483 -0.41294,-0.31539 0.54017,-1.02959 0.54027,-0.40479 1.16879,-1.02688 1.39669,-1.38248 0.29355,-0.45802 0.41539,-0.53765 0.41792,-0.27318 0.002,0.20532 -0.45456,0.84864 -1.01459,1.42958 -0.95845,0.99438 -0.99588,1.07538 -0.63873,1.38118 0.60199,0.51545 0.44924,1.12379 -0.55269,2.20107 -0.74436,0.80036 -0.88723,1.07209 -0.70938,1.34888 0.28065,0.43694 -0.24572,1.14519 -1.72858,2.32587 -1.53198,1.21979 -1.55978,1.03059 -0.0608,-0.4136 z"
       fill="#4d4d4d"
       id="path1505"
       style="stroke-width:0.999987" />
    <path
       d="m 149.08237,179.78803 c -0.323,-0.49297 -1.12399,-0.92047 -1.33299,-0.71144 -0.2211,0.22111 0.19457,0.74993 0.8292,1.05488 0.83902,0.40322 0.94553,0.33061 0.50384,-0.34348 z"
       id="path1493"
       style="fill:#008000;stroke-width:0.999987" />
    <path
       d="m 146.0954,180.29302 c 0.63686,-0.96232 0.59282,-1.30868 -0.0738,-0.58033 -0.43046,0.47033 -0.84101,1.43628 -0.61045,1.43628 0.0648,0 0.3727,-0.38519 0.68424,-0.85598 z"
       id="path1495"
       style="fill:#008000;stroke-width:0.999987" />
    <path
       d="m 150.29535,182.74399 c -0.1305,-0.34008 -0.94942,-0.62974 -1.37718,-0.48715 -0.14004,0.0467 0.0715,0.24548 0.46991,0.44176 0.9013,0.44395 1.06339,0.45207 0.90729,0.0454 z"
       id="path1497"
       style="fill:#008000;stroke-width:0.999987" />
    <path
       d="m 147.58338,184.01497 c 0.10781,-0.83642 0.0811,-1.00449 -0.12847,-0.80834 -0.14552,0.1362 -0.31333,0.71106 -0.37292,1.27749 -0.14784,1.40538 0.31569,0.97172 0.50139,-0.46914 z"
       id="path1509"
       style="fill:#008000;stroke-width:0.999987" />
    <path
       d="m 152.13533,185.53095 c -0.29275,-0.1571 -0.86761,-0.34377 -1.27749,-0.41485 l -0.74518,-0.12923 0.85165,0.41779 c 1.00589,0.49346 2.06887,0.60809 1.17099,0.12629 z"
       id="path1511"
       style="fill:#008000;stroke-width:0.999987" />
    <path
       d="m 149.62236,186.73794 c -0.17479,-0.4971 -0.22923,-0.52901 -0.36052,-0.21131 -0.085,0.20581 -0.0839,0.73277 0.002,1.17098 l 0.3492,0.78081 0.10734,-0.60151 c 0.0694,-0.3894 0.0328,-0.76535 -0.0985,-1.13898 z"
       id="path1513"
       style="fill:#008000;stroke-width:0.999987" />
    <path
       id="path1481"
       style="fill:#ffffff;stroke-width:0.999987"
       d="m 167.63885,164.22725 c -0.19734,0.0113 -0.74254,0.2502 -1.3131,0.58239 -0.65199,0.3796 -2.24462,1.26169 -3.5388,1.96009 -3.01827,1.62888 -4.15227,2.62937 -5.22346,4.60695 -1.08618,2.00527 -2.32966,3.25258 -4.03903,4.05247 0,0 -0.90777,0.41096 -1.35754,0.41134 -0.49109,4.2e-4 -1.5322,-0.48317 -1.5322,-0.48317 -1.08898,-0.75736 -1.56956,-1.07411 -2.80965,-0.092 -0.33567,0.20465 -1.18287,0.65061 -1.18287,0.65061 l -0.40721,-0.49196 c -0.68316,-0.80569 -0.63426,-0.5335 0.28835,1.60507 0.44848,1.03959 0.35714,1.3884 -0.57723,2.1978 -0.68811,0.5961 -0.8919,0.93749 -0.9865,1.65571 -0.0842,0.63929 -0.0421,0.90486 0.14314,0.90486 0.40329,0 1.70998,-1.39915 1.70998,-1.8309 0,-0.84199 0.417,0.0826 0.55087,1.22163 0.12165,1.03504 0.0764,1.28105 -0.33848,1.84226 -0.40635,0.54969 -0.46469,0.84425 -0.38499,1.94614 0.18069,2.49734 0.98278,1.95751 1.18856,-0.79995 l 0.10025,-1.34669 0.63665,1.11414 c 0.57693,1.01013 0.61434,1.18826 0.39998,1.90376 -0.35446,1.18308 -0.29348,1.67064 0.3421,2.74402 l 0.57826,0.9772 0.16278,-1.06453 c 0.0932,-0.60999 0.0736,-1.32832 -0.046,-1.68207 -0.28882,-0.85413 -0.26257,-0.93782 0.12248,-0.38809 0.18229,0.26027 0.4283,0.47336 0.54673,0.47336 0.11843,0 0.0191,-0.27571 -0.22065,-0.61237 l -0.43564,-0.61185 0.79375,0.28319 c 0.4367,0.15586 1.15354,0.288 1.59267,0.293 0.65652,0.008 0.7984,-0.0658 0.7984,-0.41186 0,-0.58277 -0.79109,-1.04399 -2.03657,-1.18804 -1.91612,-0.22159 -1.97518,-0.25464 -2.5647,-1.42833 l -0.55965,-1.11466 0.50436,0.46508 c 0.81029,0.74659 2.52749,1.23728 2.52749,0.72244 0,-0.10813 -0.24822,-0.49133 -0.55138,-0.85163 -0.463,-0.55019 -0.70228,-0.65525 -1.49552,-0.65525 -0.81789,0 -0.97257,-0.0728 -1.15239,-0.54571 -0.11424,-0.30038 -0.20722,-0.69493 -0.20722,-0.87643 0,-0.29295 0.0538,-0.29465 0.47904,-0.017 0.61359,0.40057 1.86271,0.59157 1.8619,0.28473 -0.001,-0.36619 -0.82763,-1.62047 -1.11827,-1.69757 -1.29397,-0.34311 -1.49161,-0.4836 -1.75028,-1.24178 l -0.27131,-0.79427 0.59222,0.42168 c 0.32548,0.23176 0.81622,0.42227 1.09089,0.42427 0.72735,0.005 0.95724,0.21392 1.418,1.28881 0.6198,1.44598 2.32218,2.87946 3.77806,3.18171 1.49168,0.30969 3.79493,-0.1668 5.22242,-1.08055 0.53718,-0.34388 1.1489,-0.62529 1.35909,-0.62529 0.21019,0 1.50033,0.71855 2.86701,1.59681 2.48915,1.59955 3.6695,2.03511 3.21479,1.18545 -0.3164,-0.59117 -0.27611,-0.69948 0.20516,-0.54673 0.23419,0.0741 0.62551,0.0718 0.86971,-0.006 l 0.44442,-0.14107 -0.89504,-0.95292 0.56328,-0.25631 c 0.30981,-0.14116 0.50584,-0.31374 0.43614,-0.38344 -0.0698,-0.0697 -1.20766,-0.48392 -2.52904,-0.92036 -1.32138,-0.43644 -2.67392,-0.9218 -3.0055,-1.07848 -0.57253,-0.27053 -0.58056,-0.29286 -0.15968,-0.44856 0.45113,-0.16688 0.61792,-0.60358 0.23048,-0.60358 -0.11712,0 -0.21291,-0.0958 -0.21291,-0.2129 0,-0.1171 0.12691,-0.21291 0.28215,-0.21291 0.36652,0 1.32469,-1.01885 1.13585,-1.20768 -0.0796,-0.0796 0.0508,-0.35272 0.28939,-0.60668 0.44436,-0.47297 0.38142,-1.28543 -0.0796,-1.02733 -0.13411,0.0751 0.11536,-0.24101 0.55448,-0.70228 0.80426,-0.84478 1.01012,-1.35289 0.54829,-1.35289 -0.13752,0 -0.0417,-0.22197 0.21291,-0.49299 0.59836,-0.63689 0.61896,-1.42317 0.0372,-1.42317 -0.60551,0 -0.54491,-0.14807 0.53227,-1.29966 0.92619,-0.99015 1.25113,-1.89395 0.6811,-1.89395 -0.15223,0 -0.41084,0.11977 -0.57516,0.26614 -0.1643,0.14637 0.0505,-0.13562 0.47749,-0.62632 1.21798,-1.39948 1.74038,-2.62256 1.24954,-2.92592 -0.013,-0.008 -0.0343,-0.0109 -0.0625,-0.009 z m -0.4315,0.83715 c 0.1642,0.1642 -0.48167,1.10025 -1.50895,2.18643 l -1.06247,1.12345 h 0.67696 c 0.63284,0 0.66101,0.0313 0.43202,0.47904 -0.1347,0.2634 -0.67823,0.92657 -1.20768,1.47381 l -0.96222,0.99529 0.88057,-0.11834 c 1.15729,-0.1552 1.1507,0.17946 -0.0243,1.26504 -0.86699,0.80102 -0.87907,0.82965 -0.29611,0.68368 0.56768,-0.14214 0.59199,-0.12214 0.36897,0.29456 -0.1315,0.24561 -0.66852,0.74194 -1.19372,1.10329 -1.12237,0.77221 -1.19254,0.91023 -0.30541,0.60099 0.95452,-0.3328 1.05214,-0.0107 0.21032,0.69505 -0.69059,0.57896 -0.70598,0.61805 -0.24029,0.61805 0.74415,0 0.23619,0.49818 -0.98289,0.96377 -0.92519,0.35333 -0.96104,0.39377 -0.49868,0.56482 0.62877,0.2326 0.44784,0.41815 -0.56895,0.58343 -0.76299,0.1241 -0.6803,0.173 1.92856,1.13791 1.49918,0.55452 3.10032,1.06834 3.55844,1.14154 0.8384,0.13407 0.96914,0.50591 0.17777,0.50591 -0.38016,0 -0.36211,0.0575 0.17208,0.54622 l 0.59738,0.54673 -0.82579,-0.1359 c -0.79799,-0.13091 -0.82243,-0.11663 -0.7214,0.41186 0.0576,0.30091 0.0936,0.54548 0.0806,0.54467 -0.0131,-0.001 -1.17347,-0.71943 -2.57865,-1.59629 -1.40528,-0.87685 -2.69859,-1.59506 -2.87424,-1.59577 -0.1757,-7.1e-4 -0.99001,0.33547 -1.80971,0.74673 -3.80555,1.90938 -6.4923,1.21849 -8.26668,-2.12597 -0.62772,-1.18312 -0.74049,-1.28476 -1.5875,-1.4273 -0.50158,-0.0844 -1.14717,-0.33877 -1.43454,-0.56483 l -0.52245,-0.41082 c 0,0 0.79221,-0.3944 1.11931,-0.58602 0.33106,-0.19392 0.74045,-0.66912 1.11932,-0.68212 0.49259,-0.0169 1.50481,0.75602 1.50481,0.75602 1.34605,0.59078 1.59187,0.63652 2.33733,0.43098 1.92837,-0.53159 4.10306,-2.50177 5.00021,-4.52995 0.91659,-2.07227 2.8158,-3.6125 6.86005,-5.56297 1.30258,-0.62823 2.40421,-1.10669 2.44791,-1.06299 z m -19.35386,13.96246 c 0.29775,-0.0515 0.94624,0.32985 1.22887,0.76119 0.44169,0.67409 0.33517,0.74687 -0.50385,0.34365 -0.63463,-0.30495 -1.04999,-0.83412 -0.82889,-1.05523 0.0261,-0.0261 0.0613,-0.0423 0.10387,-0.0496 z m -1.34772,0.29559 c 0.11968,0.008 -0.0123,0.36903 -0.41031,0.97048 -0.31154,0.47079 -0.6194,0.85628 -0.6842,0.85628 -0.23056,0 0.17984,-0.96627 0.6103,-1.4366 0.24998,-0.27313 0.4124,-0.3951 0.48421,-0.39016 z m 2.58899,2.9006 c 0.4451,-0.0354 1.08677,0.22333 1.20096,0.5209 0.1561,0.40667 -0.006,0.39847 -0.90744,-0.0455 -0.39841,-0.19628 -0.60978,-0.39513 -0.46974,-0.44183 0.0535,-0.0178 0.11263,-0.0285 0.17622,-0.0336 z m -1.51619,0.9095 c 0.0909,0.004 0.086,0.25532 0.005,0.88264 -0.1857,1.44086 -0.64962,1.87408 -0.50178,0.4687 0.0596,-0.56643 0.22759,-1.14124 0.37311,-1.27744 0.0524,-0.049 0.0932,-0.0751 0.1235,-0.0739 z m 2.53421,1.85415 0.74518,0.12919 c 0.40988,0.0711 0.98469,0.25787 1.27744,0.41497 0.89788,0.4818 -0.1651,0.36737 -1.17099,-0.12609 z m -0.72502,1.33584 c 0.0634,-0.0245 0.12537,0.10479 0.23462,0.41548 h -5.3e-4 c 0.1313,0.37363 0.1681,0.74955 0.0987,1.13895 l -0.10749,0.60151 -0.34881,-0.78083 c -0.0859,-0.43821 -0.0871,-0.96518 -0.002,-1.17099 0.0492,-0.11914 0.0876,-0.18941 0.12558,-0.20412 z" />
  </g>
</svg>